…
# Load the Data

This week we have a data set about country codes. Not very inspired
unfortunately…

``` r
tuesdata <- tidytuesdayR::tt_load('2024-11-12')

countries <- tuesdata$countries
countries
```

    ## # A tibble: 249 × 6
    ##    alpha_2 alpha_3 numeric name                 official_name        common_name
    ##    <chr>   <chr>     <dbl> <chr>                <chr>                <chr>      
    ##  1 AW      ABW         533 Aruba                <NA>                 <NA>       
    ##  2 AF      AFG           4 Afghanistan          Islamic Republic of… <NA>       
    ##  3 AO      AGO          24 Angola               Republic of Angola   <NA>       
    ##  4 AI      AIA         660 Anguilla             <NA>                 <NA>       
    ##  5 AX      ALA         248 Åland Islands        <NA>                 <NA>       
    ##  6 AL      ALB           8 Albania              Republic of Albania  <NA>       
    ##  7 AD      AND          20 Andorra              Principality of And… <NA>       
    ##  8 AE      ARE         784 United Arab Emirates <NA>                 <NA>       
    ##  9 AR      ARG          32 Argentina            Argentine Republic   <NA>       
    ## 10 AM      ARM          51 Armenia              Republic of Armenia  <NA>       
    ## # ℹ 239 more rows
…
    # Because the codons where generated random and we want to have a consistant 
    # genetic code, I save the matched letters and codons as a csv.
    write_csv(gen_code,here("Tidy_Tuesday", "tidy_tuesday_3", "data", "gen_code.csv"))

# Load the Genetic Code

``` r
gen_code <- tibble(read_csv(here("Tidy_Tuesday", "tidy_tuesday_3", "data", "gen_code.csv")))

gen_code
```

    ## # A tibble: 28 × 2
    ##    alpha codon
    ##    <chr> <chr>
    ##  1 a     TYR  
    ##  2 b     RRR  
    ##  3 c     RTT  
    ##  4 d     YKK  
    ##  5 e     YYY  
    ##  6 f     TYR  
    ##  7 g     KKY  
    ##  8 h     RTT  
    ##  9 i     RTY  
    ## 10 j     TTK  
    ## # ℹ 18 more rows
…
