…
tibble(tidal_data)
```

    ## # A tibble: 3,150 × 7
    ##    Site    Latitude Region Transect Quadrat Organism            Abundance
    ##    <fct>      <dbl> <chr>     <dbl> <chr>   <chr>                   <dbl>
    ##  1 Scripps     32.9 <35°          1 Low     Bare Rock                  25
    ##  2 Scripps     32.9 <35°          1 Low     Algae                      75
    ##  3 Scripps     32.9 <35°          1 Low     Mussels                     0
    ##  4 Scripps     32.9 <35°          1 Low     Small Barnacles             2
    ##  5 Scripps     32.9 <35°          1 Low     Large Barnacles             5
    ##  6 Scripps     32.9 <35°          1 Low     Gooseneck Barnacles         0
    ##  7 Scripps     32.9 <35°          1 Low     Anemone                     3
    ##  8 Scripps     32.9 <35°          1 Mid     Bare Rock                  50
    ##  9 Scripps     32.9 <35°          1 Mid     Algae                       0
    ## 10 Scripps     32.9 <35°          1 Mid     Mussels                     5
    ## # ℹ 3,140 more rows
…
